*   Trying 34.134.44.76:443...
*   Trying 34.134.44.76:443...
* Connected to sfahey.com (34.134.44.76) port 443 (#0)
* ALPN: offers http/1.1
* TLSv1.2 (OUT), TLS handshake, Client hello (1):
* Connected to sfahey.com (34.134.44.76) port 443 (#0)
* using HTTP/3
* h2h3 [:method: HEAD]
* h2h3 [:path: /]
* h2h3 [:scheme: https]
* h2h3 [:authority: sfahey.com]
* h2h3 [user-agent: curl/7.88.1-DEV]
* h2h3 [accept: */*]
* Using HTTP/3 Stream ID: 0 (easy handle 0x562a6241b720)
> HEAD / HTTP/3
> Host: sfahey.com
> user-agent: curl/7.88.1-DEV
> accept: */*
> 
< HTTP/3 200 
HTTP/3 200 
< server: nginx/1.19.6
[1mserver[0m: nginx/1.19.6
< date: Sun, 09 Apr 2023 19:12:45 GMT
[1mdate[0m: Sun, 09 Apr 2023 19:12:45 GMT
< content-type: text/html
[1mcontent-type[0m: text/html
< content-length: 612
[1mcontent-length[0m: 612
< last-modified: Sat, 31 Jul 2021 18:12:24 GMT
[1mlast-modified[0m: Sat, 31 Jul 2021 18:12:24 GMT
< vary: Accept-Encoding
[1mvary[0m: Accept-Encoding
< etag: "61059288-264"
[1metag[0m: "61059288-264"
< alt-svc: h3-27=":443"; ma=86400, h3-28=":443"; ma=86400, h3-29=":443"; ma=86400, h3=":443"; ma=86400
[1malt-svc[0m: h3-27=":443"; ma=86400, h3-28=":443"; ma=86400, h3-29=":443"; ma=86400, h3=":443"; ma=86400
< accept-ranges: bytes
[1maccept-ranges[0m: bytes
* Connection #0 to host sfahey.com left intact
