module github.com/nginxinc/kubernetes-ingress

go 1.19

require (
	github.com/aws/aws-sdk-go-v2/config v1.18.12
	github.com/aws/aws-sdk-go-v2/service/marketplacemetering v1.14.2
	github.com/cert-manager/cert-manager v1.11.0
	github.com/go-chi/chi/v5 v5.0.8
	github.com/golang-jwt/jwt/v4 v4.4.3
	github.com/golang/glog v1.0.0
	github.com/google/go-cmp v0.5.9
	github.com/kr/pretty v0.3.1
	github.com/nginxinc/nginx-plus-go-client v0.10.0
	github.com/nginxinc/nginx-prometheus-exporter v0.11.0
	github.com/prometheus/client_golang v1.14.0
	github.com/spiffe/go-spiffe/v2 v2.1.2
	github.com/stretchr/testify v1.8.1
	golang.org/x/exp v0.0.0-20230105000112-eab7a2c85304
	google.golang.org/grpc v1.52.3
	k8s.io/api v0.26.1
	k8s.io/apimachinery v0.26.1
	k8s.io/client-go v0.26.1
	k8s.io/code-generator v0.26.1
	k8s.io/utils v0.0.0-20221128185143-99ec85e7a448
	sigs.k8s.io/controller-tools v0.11.3
)

require (
	github.com/Azure/go-ntlmssp v0.0.0-20220621081337-cb9428e4ac1e // indirect
	github.com/Microsoft/go-winio v0.6.0 // indirect
	github.com/aws/aws-sdk-go-v2 v1.17.4 // indirect
	github.com/aws/aws-sdk-go-v2/credentials v1.13.12 // indirect
	github.com/aws/aws-sdk-go-v2/feature/ec2/imds v1.12.22 // indirect
	github.com/aws/aws-sdk-go-v2/internal/configsources v1.1.28 // indirect
	github.com/aws/aws-sdk-go-v2/internal/endpoints/v2 v2.4.22 // indirect
	github.com/aws/aws-sdk-go-v2/internal/ini v1.3.29 // indirect
	github.com/aws/aws-sdk-go-v2/service/internal/presigned-url v1.9.22 // indirect
	github.com/aws/aws-sdk-go-v2/service/sso v1.12.1 // indirect
	github.com/aws/aws-sdk-go-v2/service/ssooidc v1.14.1 // indirect
	github.com/aws/aws-sdk-go-v2/service/sts v1.18.3 // indirect
	github.com/aws/smithy-go v1.13.5 // indirect
	github.com/beorn7/perks v1.0.1 // indirect
	github.com/blang/semver/v4 v4.0.0 // indirect
	github.com/cenkalti/backoff/v4 v4.1.3 // indirect
	github.com/cespare/xxhash/v2 v2.1.2 // indirect
	github.com/coreos/go-semver v0.3.0 // indirect
	github.com/coreos/go-systemd/v22 v22.3.2 // indirect
	github.com/davecgh/go-spew v1.1.1 // indirect
	github.com/emicklei/go-restful/v3 v3.9.0 // indirect
	github.com/evanphx/json-patch v5.6.0+incompatible // indirect
	github.com/fatih/color v1.13.0 // indirect
	github.com/felixge/httpsnoop v1.0.3 // indirect
	github.com/go-asn1-ber/asn1-ber v1.5.4 // indirect
	github.com/go-ldap/ldap/v3 v3.4.4 // indirect
	github.com/go-logr/logr v1.2.3 // indirect
	github.com/go-logr/stdr v1.2.2 // indirect
	github.com/go-openapi/jsonpointer v0.19.5 // indirect
	github.com/go-openapi/jsonreference v0.20.0 // indirect
	github.com/go-openapi/swag v0.19.14 // indirect
	github.com/gobuffalo/flect v0.3.0 // indirect
	github.com/gogo/protobuf v1.3.2 // indirect
	github.com/golang/groupcache v0.0.0-20210331224755-41bb18bfe9da // indirect
	github.com/golang/protobuf v1.5.2 // indirect
	github.com/google/gnostic v0.6.9 // indirect
	github.com/google/gofuzz v1.2.0 // indirect
	github.com/google/uuid v1.3.0 // indirect
	github.com/grpc-ecosystem/go-grpc-prometheus v1.2.0 // indirect
	github.com/grpc-ecosystem/grpc-gateway/v2 v2.7.0 // indirect
	github.com/imdario/mergo v0.3.12 // indirect
	github.com/inconshreveable/mousetrap v1.0.1 // indirect
	github.com/josharian/intern v1.0.0 // indirect
	github.com/json-iterator/go v1.1.12 // indirect
	github.com/kr/text v0.2.0 // indirect
	github.com/mailru/easyjson v0.7.6 // indirect
	github.com/mattn/go-colorable v0.1.13 // indirect
	github.com/mattn/go-isatty v0.0.16 // indirect
	github.com/matttproud/golang_protobuf_extensions v1.0.4 // indirect
	github.com/modern-go/concurrent v0.0.0-20180306012644-bacd9c7ef1dd // indirect
	github.com/modern-go/reflect2 v1.0.2 // indirect
	github.com/munnerz/goautoneg v0.0.0-20191010083416-a7dc8b61c822 // indirect
	github.com/pkg/errors v0.9.1 // indirect
	github.com/pmezard/go-difflib v1.0.0 // indirect
	github.com/prometheus/client_model v0.3.0 // indirect
	github.com/prometheus/common v0.37.0 // indirect
	github.com/prometheus/procfs v0.8.0 // indirect
	github.com/rogpeppe/go-internal v1.9.0 // indirect
	github.com/spf13/cobra v1.6.1 // indirect
	github.com/spf13/pflag v1.0.5 // indirect
	github.com/zeebo/errs v1.3.0 // indirect
	go.etcd.io/etcd/api/v3 v3.5.5 // indirect
	go.etcd.io/etcd/client/pkg/v3 v3.5.5 // indirect
	go.etcd.io/etcd/client/v3 v3.5.5 // indirect
	go.opentelemetry.io/contrib/instrumentation/google.golang.org/grpc/otelgrpc v0.35.0 // indirect
	go.opentelemetry.io/contrib/instrumentation/net/http/otelhttp v0.35.0 // indirect
	go.opentelemetry.io/otel v1.10.0 // indirect
	go.opentelemetry.io/otel/exporters/otlp/internal/retry v1.10.0 // indirect
	go.opentelemetry.io/otel/exporters/otlp/otlptrace v1.10.0 // indirect
	go.opentelemetry.io/otel/exporters/otlp/otlptrace/otlptracegrpc v1.10.0 // indirect
	go.opentelemetry.io/otel/metric v0.31.0 // indirect
	go.opentelemetry.io/otel/sdk v1.10.0 // indirect
	go.opentelemetry.io/otel/trace v1.10.0 // indirect
	go.opentelemetry.io/proto/otlp v0.19.0 // indirect
	go.uber.org/atomic v1.9.0 // indirect
	go.uber.org/multierr v1.6.0 // indirect
	go.uber.org/zap v1.24.0 // indirect
	golang.org/x/crypto v0.5.0 // indirect
	golang.org/x/mod v0.7.0 // indirect
	golang.org/x/net v0.5.0 // indirect
	golang.org/x/oauth2 v0.4.0 // indirect
	golang.org/x/sys v0.4.0 // indirect
	golang.org/x/term v0.4.0 // indirect
	golang.org/x/text v0.6.0 // indirect
	golang.org/x/time v0.3.0 // indirect
	golang.org/x/tools v0.5.0 // indirect
	google.golang.org/appengine v1.6.7 // indirect
	google.golang.org/genproto v0.0.0-20230109162033-3c3c17ce83e6 // indirect
	google.golang.org/protobuf v1.28.1 // indirect
	gopkg.in/inf.v0 v0.9.1 // indirect
	gopkg.in/square/go-jose.v2 v2.6.0 // indirect
	gopkg.in/yaml.v2 v2.4.0 // indirect
	gopkg.in/yaml.v3 v3.0.1 // indirect
	k8s.io/apiextensions-apiserver v0.26.1 // indirect
	k8s.io/apiserver v0.26.1 // indirect
	k8s.io/component-base v0.26.1 // indirect
	k8s.io/gengo v0.0.0-20220902162205-c0856e24416d // indirect
	k8s.io/klog/v2 v2.80.1 // indirect
	k8s.io/kube-aggregator v0.26.0 // indirect
	k8s.io/kube-openapi v0.0.0-20221207184640-f3cff1453715 // indirect
	sigs.k8s.io/apiserver-network-proxy/konnectivity-client v0.0.35 // indirect
	sigs.k8s.io/gateway-api v0.6.0 // indirect
	sigs.k8s.io/json v0.0.0-20220713155537-f223a00ba0e2 // indirect
	sigs.k8s.io/structured-merge-diff/v4 v4.2.3 // indirect
	sigs.k8s.io/yaml v1.3.0 // indirect
)

replace github.com/golang/glog => github.com/nginxinc/glog v1.1.2
